[gd_scene load_steps=4 format=2]

[ext_resource path="res://editor/section-graph-editor.gd" type="Script" id=1]
[ext_resource path="res://editor/section-graphnode.tscn" type="PackedScene" id=2]
[ext_resource path="res://assets/icons/icon_add.svg" type="Texture" id=3]

[node name="SectionGraph" type="VBoxContainer"]
margin_left = 310.0
margin_right = 694.0
margin_bottom = 548.0
size_flags_horizontal = 3
size_flags_vertical = 3
script = ExtResource( 1 )
section_scene = ExtResource( 2 )

[node name="ToolsHBoxContainer" type="HBoxContainer" parent="."]
margin_right = 384.0
margin_bottom = 24.0
custom_constants/separation = 0

[node name="NewSectionButton" type="ToolButton" parent="ToolsHBoxContainer"]
margin_right = 28.0
margin_bottom = 24.0
rect_pivot_offset = Vector2( 280, 48 )
icon = ExtResource( 3 )

[node name="GraphEdit" type="GraphEdit" parent="."]
margin_top = 28.0
margin_right = 384.0
margin_bottom = 548.0
rect_min_size = Vector2( 220, 0 )
size_flags_horizontal = 3
size_flags_vertical = 3
right_disconnects = true
scroll_offset = Vector2( -220, -32 )
snap_distance = 10
[connection signal="pressed" from="ToolsHBoxContainer/NewSectionButton" to="." method="_on_NewSectionButton_pressed"]
[connection signal="connection_request" from="GraphEdit" to="." method="_on_GraphEdit_connection_request"]
[connection signal="disconnection_request" from="GraphEdit" to="." method="_on_GraphEdit_disconnection_request"]
[connection signal="gui_input" from="GraphEdit" to="." method="_on_GraphEdit_gui_input"]
[connection signal="node_selected" from="GraphEdit" to="." method="_on_GraphEdit_node_selected"]
[connection signal="scroll_offset_changed" from="GraphEdit" to="." method="_on_GraphEdit_scroll_offset_changed"]
